<?xml version="1.0" encoding="UTF-8"?>
<svg width="62px" height="62px" viewBox="0 0 62 62" version="1.1" xmlns="http://www.w3.org/2000/svg" xmlns:xlink="http://www.w3.org/1999/xlink">
    <title>Group</title>
    <g id="Module" stroke="none" stroke-width="1" fill="none" fill-rule="evenodd" stroke-linecap="square">
        <g id="Close-Button" transform="translate(-44.000000, -44.000000)" stroke="#FFFFFF">
            <g id="Group" transform="translate(44.000000, 44.000000)">
                <line x1="1.82352941" y1="1.82352941" x2="60.1764706" y2="60.1764706" id="Line-2"></line>
                <line x1="1.82352941" y1="1.82352941" x2="60.1764706" y2="60.1764706" id="Line-2" transform="translate(31.000000, 31.000000) scale(-1, 1) translate(-31.000000, -31.000000) "></line>
            </g>
        </g>
    </g>
</svg>